{
    "mixins": [],
    "minVersion": "0.8",
    "package": "xyz.flirora.caxton.mixin",
    "injectors": {"defaultRequire": 1},
    "compatibilityLevel": "JAVA_17",
    "client": [
        "BufferBuilderStorageMixin",
        "CommandContextAccessor",
        "DrawContextAccessor",
        "FontManagerAccessor",
        "FontManagerResourceReloaderMixin",
        "FontProviderListMixin",
        "FontStorageMixin",
        "InGameHudMixin",
        "NativeImageAccessor",
        "RenderPhaseAccessor",
        "ShaderMixin",
        "SplashTextRendererAccessor",
        "SplashTextResourceSupplierMixin",
        "TextHandlerAccessor",
        "TextHandlerMixin",
        "TextRendererAccessor",
        "TextRendererDrawerAccessor",
        "TextRendererMixin",
        "TranslationStorageMixin",
        "WorldRendererMixin",
        "dll.MinecraftClientMixin",
        "gui.AbstractSignEditScreenMixin",
        "gui.BookEditScreenLineAccessor",
        "gui.BookEditScreenMixin",
        "gui.BookEditScreenPageContentAccessor",
        "gui.BookEditScreenPageContentMixin",
        "gui.BookEditScreenPositionAccessor",
        "gui.ChatInputSuggestorMixin",
        "gui.EditBoxMixin",
        "gui.EditBoxWidgetMixin",
        "gui.TextFieldWidgetMixin",
        "gui.UtilMixin"
    ],
    "required": true
}
